%YAML 1.1
%TAG !u! tag:unity3d.com,2011:
--- !u!1 &8618644820980807457
GameObject:
  m_ObjectHideFlags: 0
  m_CorrespondingSourceObject: {fileID: 0}
  m_PrefabInstance: {fileID: 0}
  m_PrefabAsset: {fileID: 0}
  serializedVersion: 6
  m_Component:
  - component: {fileID: 8618644820980807470}
  - component: {fileID: 8618644820980807471}
  - component: {fileID: 244021942020382437}
  - component: {fileID: 7025539234455559047}
  m_Layer: 0
  m_Name: UfoManager
  m_TagString: Untagged
  m_Icon: {fileID: 0}
  m_NavMeshLayer: 0
  m_StaticEditorFlags: 0
  m_IsActive: 1
--- !u!4 &8618644820980807470
Transform:
  m_ObjectHideFlags: 0
  m_CorrespondingSourceObject: {fileID: 0}
  m_PrefabInstance: {fileID: 0}
  m_PrefabAsset: {fileID: 0}
  m_GameObject: {fileID: 8618644820980807457}
  m_LocalRotation: {x: 0, y: 0, z: 0, w: 1}
  m_LocalPosition: {x: 0, y: 0, z: 0}
  m_LocalScale: {x: 1, y: 1, z: 1}
  m_Children: []
  m_Father: {fileID: 0}
  m_RootOrder: 0
  m_LocalEulerAnglesHint: {x: 0, y: 0, z: 0}
--- !u!114 &8618644820980807471
MonoBehaviour:
  m_ObjectHideFlags: 0
  m_CorrespondingSourceObject: {fileID: 0}
  m_PrefabInstance: {fileID: 0}
  m_PrefabAsset: {fileID: 0}
  m_GameObject: {fileID: 8618644820980807457}
  m_Enabled: 1
  m_EditorHideFlags: 0
  m_Script: {fileID: 11500000, guid: 941a7ed9f6ee1854698651d385014bbf, type: 3}
  m_Name: 
  m_EditorClassIdentifier: 
  Prefabs:
  - {fileID: 1129402074305077330, guid: 74757a83f43b9984e98de0707f7024a9, type: 3}
  - {fileID: 3353127576379184432, guid: 74bc2637b0f27dc4c93f99702bcdd098, type: 3}
--- !u!114 &244021942020382437
MonoBehaviour:
  m_ObjectHideFlags: 0
  m_CorrespondingSourceObject: {fileID: 0}
  m_PrefabInstance: {fileID: 0}
  m_PrefabAsset: {fileID: 0}
  m_GameObject: {fileID: 8618644820980807457}
  m_Enabled: 1
  m_EditorHideFlags: 0
  m_Script: {fileID: 11500000, guid: 610690ca616e7c143bdfc77d0437d1f9, type: 3}
  m_Name: 
  m_EditorClassIdentifier: 
  RandomTimerRange:
    x: 10
    y: 20
  Value: 0
--- !u!114 &7025539234455559047
MonoBehaviour:
  m_ObjectHideFlags: 0
  m_CorrespondingSourceObject: {fileID: 0}
  m_PrefabInstance: {fileID: 0}
  m_PrefabAsset: {fileID: 0}
  m_GameObject: {fileID: 8618644820980807457}
  m_Enabled: 1
  m_EditorHideFlags: 0
  m_Script: {fileID: 11500000, guid: 43c75dcce411fe747837d5e37abecd8a, type: 3}
  m_Name: 
  m_EditorClassIdentifier: 
  SpawnTimeMinMax:
    x: 10
    y: 20
  UfoSpeedMinMax:
    x: 3
    y: 5
